4 Weather Data: Missing Data – Weather Shocks
…
4.2.1 Precipitation

The number of missing data for precipitation per cell:

tb_nb_na_precip <- country_weather_daily |> 
  group_by(cell_id) |> 
  select(cell_id, precip) |> 
  summarise(nb_na_precip = sum(is.na(precip))) |> 
  arrange(desc(nb_na_precip))
tb_nb_na_precip

# A tibble: 181 × 2
   cell_id nb_na_precip
     <int>        <int>
 1     153         9875
 2       9           39
 3      12           39
 4      13           39
 5      14           39
 6      19           39
 7      20           39
 8      21           39
 9      22           39
10      27           39
# ℹ 171 more rows
…
Most missing precipitation observations are from cell 153 which is covering a tiny fraction of land.

4.2.2 Minimum Temperatures

Now, let us do the same for min temperatures:

tb_nb_na_tmin <- country_weather_daily |> 
  group_by(cell_id) |> 
  select(cell_id, tmin) |> 
  summarise(nb_na_tmin = sum(is.na(tmin))) |> 
  arrange(desc(nb_na_tmin))
tb_nb_na_tmin

# A tibble: 181 × 2
   cell_id nb_na_tmin
     <int>      <int>
 1     152      16437
 2     171      16437
 3     196      16437
 4     221      16437
 5     239      16437
 6     258      16437
 7       9       6979
 8      14       6979
 9      22       6979
10      27       6979
# ℹ 171 more rows
…
4.2.3 Maximum Temperatures

And for max temperatures:

tb_nb_na_tmax <- 
  country_weather_daily |> 
  group_by(cell_id) |> 
  select(cell_id, tmax) |> 
  summarise(nb_na_tmax = sum(is.na(tmax))) |> 
  arrange(desc(nb_na_tmax))
tb_nb_na_tmax

# A tibble: 181 × 2
   cell_id nb_na_tmax
     <int>      <int>
 1     152      16437
 2     171      16437
 3     196      16437
 4     221      16437
 5     239      16437
 6     258      16437
 7       9       6971
 8      14       6971
 9      22       6971
10      27       6971
# ℹ 171 more rows
…
