5 Weather Data: Metrics – Weather Shocks
…
  save(
    country_weather_daily, 
    file = "NZL_temprary_water_deficit.rda"
  )
} else {
  load("NZL_temprary_water_deficit.rda")
}

country_weather_daily

# A tibble: 2,975,097 × 25
   cell_id longitude latitude country_code date        precip temp_min temp_max
     <int>     <dbl>    <dbl> <chr>        <date>       <dbl>    <dbl>    <dbl>
 1       9      166.    -45.8 NZL          1980-01-01 19.5        5.38     18.1
 2       9      166.    -45.8 NZL          1980-01-02  6.58      10.7      12.3
 3       9      166.    -45.8 NZL          1980-01-03  2.47       9.22     13.6
 4       9      166.    -45.8 NZL          1980-01-04  0          6.35     18.1
 5       9      166.    -45.8 NZL          1980-01-05  0          6.42     19.2
 6       9      166.    -45.8 NZL          1980-01-06  0          8.80     19.1
 7       9      166.    -45.8 NZL          1980-01-07  0.0987    12.0      18.2
 8       9      166.    -45.8 NZL          1980-01-08  0.105     11.0      14.6
 9       9      166.    -45.8 NZL          1980-01-09  0          5.38     16.0
10       9      166.    -45.8 NZL          1980-01-10  0          7.00     17.8
# ℹ 2,975,087 more rows
# ℹ 17 more variables: year <dbl>, month <dbl>, month_name <ord>,
#   day_of_year <dbl>, temp_mean <dbl>, dl_hours <dbl>, esat <dbl>,
#   PET_daily <dbl>, rain <dbl>, snow <dbl>, pack <dbl>, melt <dbl>,
#   water_input <dbl>, AET <dbl>, soil_moisture <dbl>, soil_surplus <dbl>,
#   soil_deficit <dbl>
…
The years in the data:

years <- sort(unique(smdi_weekly$year))

We get the calendar of months for monthly aggregations by applying the get_month_week_cal() function to all the (year, month) covering the sample period:

months_cal <- tidyr::crossing(year = years, month = 1:12) |>
  purrr::pmap(\(year, month) get_month_week_cal(year, month)) |> 
  list_rbind()
months_cal

# A tibble: 2,778 × 5
    year month  week nb_days weight_ndays
   <dbl> <int> <int>   <int>        <dbl>
 1  1980     1     1       7       0.226 
 2  1980     1     2       7       0.226 
 3  1980     1     3       7       0.226 
 4  1980     1     4       7       0.226 
 5  1980     1     5       3       0.0968
 6  1980     2     5       4       0.138 
 7  1980     2     6       7       0.241 
 8  1980     2     7       7       0.241 
 9  1980     2     8       7       0.241 
10  1980     2     9       4       0.138 
# ℹ 2,768 more rows
…
The calendar of months for monthly aggregations:

quarters_cal <- tidyr::crossing(year = years, quarter = 1:4) |>
  purrr::pmap(\(year, quarter) get_quarter_week_cal(year, quarter)) |> 
  list_rbind()
quarters_cal

# A tibble: 2,418 × 5
    year quarter  week nb_days weight_ndays
   <dbl>   <int> <int>   <int>        <dbl>
 1  1980       1     1       7       0.0769
 2  1980       1     2       7       0.0769
 3  1980       1     3       7       0.0769
 4  1980       1     4       7       0.0769
 5  1980       1     5       7       0.0769
 6  1980       1     6       7       0.0769
 7  1980       1     7       7       0.0769
 8  1980       1     8       7       0.0769
 9  1980       1     9       7       0.0769
10  1980       1    10       7       0.0769
# ℹ 2,408 more rows
…
weather_monthly <- 
  country_weather_daily |> 
  mutate(ym = floor_date(date, "month")) |> 
  group_by(cell_id, ym, year, month) |> 
  summarise(
    P = sum(precip, na.rm = TRUE), # in mm/month
    PET = sum(PET_daily, na.rm = TRUE), # in mm/month
    .groups = "drop"
  ) |> 
  arrange(cell_id, year, month) |> 
  mutate(balance = P - PET)
  
weather_monthly

# A tibble: 97,740 × 7
   cell_id ym          year month     P   PET balance
     <int> <date>     <dbl> <dbl> <dbl> <dbl>   <dbl>
 1       9 1980-01-01  1980     1 213.   77.9   135. 
 2       9 1980-02-01  1980     2 160.   66.3    93.9
 3       9 1980-03-01  1980     3 152.   56.7    95.8
 4       9 1980-04-01  1980     4  69.0  41.5    27.6
 5       9 1980-05-01  1980     5 202.   35.0   168. 
 6       9 1980-06-01  1980     6 165.   25.4   139. 
 7       9 1980-07-01  1980     7 166.   26.5   139. 
 8       9 1980-08-01  1980     8 182.   33.3   149. 
 9       9 1980-09-01  1980     9 183.   41.1   142. 
10       9 1980-10-01  1980    10 129.   55.0    73.5
# ℹ 97,730 more rows
…
The reference period will be Jan. 1981 to Dec. 200.

ref_start <- c(1981, 1)
ref_end <- c(2010, 12)

For example, the SPEI for cell 19 gives:

compute_spei(
  df = weather_monthly |> filter(cell_id == 19),
  ref_start = ref_start,
  ref_end = ref_end
)

# A tibble: 540 × 5
   ym          SPEI_1  SPEI_3  SPEI_6 SPEI_12
   <date>       <dbl>   <dbl>   <dbl>   <dbl>
 1 1980-01-01  0.457  NA      NA           NA
 2 1980-02-01 -0.0726 NA      NA           NA
 3 1980-03-01 -0.0889  0.0265 NA           NA
 4 1980-04-01 -1.74   -0.917  NA           NA
 5 1980-05-01  0.271  -0.820  NA           NA
 6 1980-06-01 -0.145  -0.836  -0.582       NA
 7 1980-07-01  0.351   0.142  -0.567       NA
 8 1980-08-01  0.791   0.333  -0.351       NA
 9 1980-09-01  0.310   0.579  -0.227       NA
10 1980-10-01 -0.810   0.117   0.0809      NA
# ℹ 530 more rows
…
spei_by_cell |> 
  filter(is.infinite(SPEI_3))

# A tibble: 30 × 7
   cell_id  year month SPEI_1 SPEI_3 SPEI_6 SPEI_12
     <int> <dbl> <dbl>  <dbl>  <dbl>  <dbl>   <dbl>
 1      32  2022     7 -1.68    -Inf -3.87   -1.37 
 2      54  2024     7 -1.04    -Inf -0.785   0.145
 3      64  2024     7 -1.16    -Inf -1.13   -0.255
 4      73  2024     7 -1.23    -Inf -1.73   -1.30 
 5      74  2017    12 -1.71    -Inf -1.49   -0.807
 6      74  2024     7 -1.02    -Inf -1.36   -0.764
 7     100  2011    10 -0.539   -Inf -1.25   -0.515
 8     101  2011    10 -0.826   -Inf -1.25   -0.666
 9     107  2011    10 -0.500   -Inf -1.46   -0.694
10     108  1997    10 -1.28    -Inf -3.00   -1.66 
# ℹ 20 more rows

spei_by_cell |> 
  filter(is.infinite(SPEI_6))

# A tibble: 34 × 7
   cell_id  year month SPEI_1 SPEI_3 SPEI_6 SPEI_12
     <int> <dbl> <dbl>  <dbl>  <dbl>  <dbl>   <dbl>
 1      27  2018     8 -2.68   -6.03   -Inf  -2.12 
 2      27  2019     1 -3.29   -4.12   -Inf  -4.01 
 3      32  2022     6 -1.36   -3.82   -Inf  -0.802
 4      32  2022     8 -0.613  -2.23   -Inf  -1.73 
 5      32  2022     9 -1.81   -2.11   -Inf  -2.42 
 6      32  2022    10 -2.30   -2.34   -Inf  -2.94 
 7     164  2023     4  2.04    4.23    Inf Inf    
 8     164  2023     6  1.56  Inf       Inf Inf    
 9     165  2023     4  1.65    3.10    Inf   3.25 
10     180  2023     4  2.18    2.68    Inf Inf    
# ℹ 24 more rows

spei_by_cell |> 
  filter(is.infinite(SPEI_12))

# A tibble: 117 × 7
   cell_id  year month SPEI_1 SPEI_3 SPEI_6 SPEI_12
     <int> <dbl> <dbl>  <dbl>  <dbl>  <dbl>   <dbl>
 1      32  2022    12 -2.49   -3.32  -3.30    -Inf
 2      32  2023     4 -0.848  -1.29  -3.03    -Inf
 3     164  2023     4  2.04    4.23 Inf        Inf
 4     164  2023     5  2.61    2.22   5.07     Inf
 5     164  2023     6  1.56  Inf    Inf        Inf
 6     164  2023     7 -0.441   2.40   3.75     Inf
 7     179  2023     1  3.02    3.35   5.10     Inf
 8     179  2023     2  2.16    2.68   3.71     Inf
 9     179  2023     3 -0.136   2.65   3.88     Inf
10     179  2023     4  1.21    1.85   4.81     Inf
# ℹ 107 more rows
…
