6 Merge With Macroeconomic Data – Weather Shocks
…
df_w

# A tibble: 120 × 5
   YEARS  wgdp  wcpi wgdp_def    wr
   <dbl> <dbl> <dbl>    <dbl> <dbl>
 1 1987     NA  60.4       NA    NA
 2 1987.    NA  61.1       NA    NA
 3 1988.    NA  61.5       NA    NA
 4 1988.    NA  61.9       NA    NA
 5 1988     NA  62.2       NA    NA
 6 1988.    NA  62.7       NA    NA
 7 1988.    NA  63.3       NA    NA
 8 1989.    NA  63.9       NA    NA
 9 1989     NA  64.4       NA    NA
10 1989.    NA  65.5       NA    NA
# ℹ 110 more rows
…
